{
  "files": {
    "main.css": "/static/css/main.a102879e.css",
    "main.js": "/static/js/main.0e9c34fe.js",
    "static/js/787.e7dac4c8.chunk.js": "/static/js/787.e7dac4c8.chunk.js",
    "service-worker.js": "/service-worker.js",
    "index.html": "/index.html",
    "main.a102879e.css.map": "/static/css/main.a102879e.css.map",
    "main.0e9c34fe.js.map": "/static/js/main.0e9c34fe.js.map",
    "787.e7dac4c8.chunk.js.map": "/static/js/787.e7dac4c8.chunk.js.map"
  },
  "entrypoints": [
    "static/css/main.a102879e.css",
    "static/js/main.0e9c34fe.js"
  ]
}